%YAML 1.1
%TAG !u! tag:unity3d.com,2011:
--- !u!1045 &1
EditorBuildSettings:
  m_ObjectHideFlags: 0
  serializedVersion: 2
  m_Scenes:
  - enabled: 1
    path: Assets/Karting/Scenes/MainMenu.unity
    guid: 594d77f5c6d372040834220089633061
  - enabled: 1
    path: Assets/Karting/Scenes/SampleScene.unity
    guid: f8c7069e6d9b2124b861144ca83d31e8
  m_configObjects: {}
